// Jest Snapshot v1, https://goo.gl/fbAQLP

exports[`Todo editor renders correctly and match snapshot 1`] = `
<View>
  <View
    style={
      {
        "flexDirection": "row",
      }
    }
  >
    <TextInput
      blurOnSubmit={false}
      onChangeText={[Function]}
      onSubmitEditing={[Function]}
      placeholder="Add a new todo"
      style={
        {
          "backgroundColor": "#fff",
          "borderRadius": 5,
          "color": "#26255F",
          "flex": 1,
          "height": 40,
          "padding": 8,
        }
      }
      testID="todoContentInput"
      value=""
    />
    <View
      accessible={true}
      collapsable={false}
      focusable={true}
      onClick={[Function]}
      onResponderGrant={[Function]}
      onResponderMove={[Function]}
      onResponderRelease={[Function]}
      onResponderTerminate={[Function]}
      onResponderTerminationRequest={[Function]}
      onStartShouldSetResponder={[Function]}
      style={
        {
          "alignItems": "center",
          "flexDirection": "row",
          "height": 40,
          "justifyContent": "center",
          "marginLeft": 4,
          "opacity": 1,
          "width": 40,
        }
      }
      testID="submitButton"
    >
      <svg
        data-file-name="SvgIcon_add"
        fill="#5654B1"
      />
    </View>
  </View>
</View>
`;
